<svg version="1.1" xmlns="http://www.w3.org/2000/svg" viewBox="0 0 1270.8075706765555 801.6381471543325" width="1270.8075706765555" height="801.6381471543325">
  <!-- svg-source:excalidraw -->
  
  <defs>
    <style class="style-fonts">
      @font-face {
        font-family: "Virgil";
        src: url("https://excalidraw.com/Virgil.woff2");
      }
      @font-face {
        font-family: "Cascadia";
        src: url("https://excalidraw.com/Cascadia.woff2");
      }
    </style>
    
  </defs>
  <rect x="0" y="0" width="1270.8075706765555" height="801.6381471543325" fill="#fdf8f6"></rect><g stroke-linecap="round" transform="translate(426.3612178823911 67.3217409043325) rotate(0 394.2612847222223 362.158203125)"><path d="M32 0 M32 0 C211.08 0.15, 391.28 0.64, 756.52 0 M32 0 C179.54 0.92, 326.64 0.88, 756.52 0 M756.52 0 C778.72 1.92, 790.02 9.98, 788.52 32 M756.52 0 C778.7 -0.62, 789.35 8.52, 788.52 32 M788.52 32 C786.67 277.46, 786.44 522.52, 788.52 692.32 M788.52 32 C785.88 278.26, 785.77 525.29, 788.52 692.32 M788.52 692.32 C789.49 712.78, 778.85 723.11, 756.52 724.32 M788.52 692.32 C790.18 712.11, 778.4 724.45, 756.52 724.32 M756.52 724.32 C493.73 724.26, 229.24 722.97, 32 724.32 M756.52 724.32 C486.81 723.27, 217.28 723.48, 32 724.32 M32 724.32 C8.97 724.34, 1.02 714.27, 0 692.32 M32 724.32 C10.17 724.87, 1.38 712.02, 0 692.32 M0 692.32 C2.03 515.73, 1.02 337.72, 0 32 M0 692.32 C1.25 439.49, 1.27 185.95, 0 32 M0 32 C0.07 11.65, 9.41 1.62, 32 0 M0 32 C-0.09 10.14, 9.55 1.4, 32 0" stroke="#1e1e1e" stroke-width="1" fill="none"></path></g><g mask="url(#mask-pDarm8vheJx5OWjzC2Cgz)" stroke-linecap="round"><g transform="translate(11.75965538239106 387.05014802238804) rotate(0 203.14522421048022 -1.6794873607686327)"><path d="M-0.2 -1.09 C67.88 -1.89, 340.19 -3.78, 408.05 -4.31 M-1.76 0.96 C66.2 0.25, 338.63 -2.48, 407.16 -3.21" stroke="#4dabf7" stroke-width="2" fill="none"></path></g><g transform="translate(11.75965538239106 387.05014802238804) rotate(0 203.14522421048022 -1.6794873607686327)"><path d="M377.26 7.52 C385.17 2.98, 392.71 2.15, 408.5 -5.05 M378.34 7.16 C387.61 4.66, 395.57 0.87, 406.27 -3.65" stroke="#4dabf7" stroke-width="2" fill="none"></path></g><g transform="translate(11.75965538239106 387.05014802238804) rotate(0 203.14522421048022 -1.6794873607686327)"><path d="M377.05 -13 C385.1 -12.05, 392.69 -7.4, 408.5 -5.05 M378.13 -13.36 C387.59 -10.05, 395.61 -8.05, 406.27 -3.65" stroke="#4dabf7" stroke-width="2" fill="none"></path></g></g><mask id="mask-pDarm8vheJx5OWjzC2Cgz"><rect x="0" y="0" fill="#fff" width="519.7049678823911" height="490.5451634261033"></rect><rect x="190.04969444489106" y="369.20264032053035" fill="#000" width="51.365234375" height="32.199999999999996" opacity="1"></rect></mask><g transform="translate(190.04969444489106 369.20264032053035) rotate(0 24.855185147980222 16.16802034108906)"><text x="25.6826171875" y="0" font-family="Helvetica, Segoe UI Emoji" font-size="28px" fill="#1e1e1e" text-anchor="middle" style="white-space: pre;" direction="ltr" dominant-baseline="text-before-edge">Req</text></g><g stroke-linecap="round"><g transform="translate(496.88012899659066 309.7634234175698) rotate(0 0.6938638611758421 57.40786906008208)"><path d="M-1.87 1.12 C-18.31 8.33, -36.91 16.67, -45.03 21.85 M-47.87 20.21 C-51.98 41.79, -53.25 58.02, -57.27 72.38 M-58.73 74.21 C-50.58 86.08, -41.66 93.2, -24.26 113.02 M-26.88 112.94 C-10.54 114.09, 3.85 113.67, 23.64 113.94 M24.52 115.74 C31.52 103.87, 41.83 97.18, 60.12 71.92 M56.29 71.74 C53.29 52.75, 51.47 34.03, 45.31 22.02 M45.21 23.25 C30.72 14.91, 13.87 9.36, 1.48 -0.93" stroke="#aaa" stroke-width="2.5" fill="none" stroke-dasharray="1.5 8"></path></g></g><mask></mask><g stroke-linecap="round"><g transform="translate(495.55840350237236 308.37890012202854) rotate(0 0.8393161500865887 57.4092611880281)" fill-rule="evenodd"><path d="M-1.82 -0.16 L-46.97 22.6 L-58.09 75.75 L-24.8 115.51 L27.56 115.15 L57.67 75.44 L45.43 23.65 L0.66 -1.37" stroke="none" stroke-width="0" fill="#228be6" fill-rule="evenodd"></path><path d="M-0.85 0.18 C-12.83 5.5, -20.66 10.28, -44.84 22.26 M-47.99 23.16 C-49.5 38.2, -54.14 55.59, -58.22 72.02 M-58.06 75.72 C-49.36 82.91, -40.26 92.59, -26.19 115.21 M-24.36 113.85 C-8.89 113.95, 2.25 114.16, 24.35 116.44 M23.93 114.09 C38.93 101.64, 52.18 82.38, 59.9 72.36 M57.29 72.65 C57.55 61.01, 51.6 48.32, 47.55 23.03 M46.44 21.9 C28.02 15.82, 13.84 5.08, -1.24 -1.62 M0 0 C0 0, 0 0, 0 0" stroke="#fff" stroke-width="2.5" fill="none" stroke-dasharray="1.5 8"></path></g></g><mask></mask><g stroke-linecap="round"><g transform="translate(472.71204792426465 351.64745382845274) rotate(0 11.007680560504014 18.690531825286882)" fill-rule="evenodd"><path d="M-1.94 -0.93 L-0.83 28.66 L21.64 37.34 L22.14 8.05 L3.62 3.37" stroke="none" stroke-width="0" fill="#fff" fill-rule="evenodd"></path><path d="M-1.9 0.08 C0.96 9.33, 1.22 19.38, 0.98 25.22 M0.99 25.7 C4.35 27.88, 7.73 29.93, 20.6 37.38 M21.75 37.69 C23.2 27.01, 21.44 19.19, 21.92 6.11 M23.91 5.74 C16.18 4.54, 12.94 5.95, 4.07 0.9 M2.72 2.26 C2.11 1.06, 1.28 0.52, -0.18 -0.31" stroke="#228be6" stroke-width="1.5" fill="none" stroke-dasharray="1.5 7"></path></g></g><mask></mask><g stroke-linecap="round"><g transform="translate(521.1220106395263 351.5118516919955) rotate(0 -12.530193960265535 18.264962710179702)" fill-rule="evenodd"><path d="M-1.04 1.6 L-24.04 5.36 L-22.6 39.71 L-0.04 28.73 L-1.68 1.27" stroke="none" stroke-width="0" fill="#fff" fill-rule="evenodd"></path><path d="M1 -0.31 C-6.33 2.26, -14.21 2.46, -26.06 4.98 M-24.2 5.47 C-24.5 16.36, -23.92 27.9, -22.28 38.19 M-21.31 37.17 C-14.77 34.88, -5.88 28.68, -3.05 28.55 M-3.03 25.68 C-2.3 21.42, 0.7 12.74, 0.15 -1.66 M0 0 C0 0, 0 0, 0 0" stroke="#228be6" stroke-width="1.5" fill="none" stroke-dasharray="1.5 7"></path></g></g><mask></mask><g stroke-linecap="round"><g transform="translate(474.47487569820976 348.52860468993447) rotate(0 23.474095194411632 0.26681960019544704)" fill-rule="evenodd"><path d="M0.08 -1.58 L22.82 7.3 L47.63 1.95 L20.9 -6.4 L-0.45 -0.08" stroke="none" stroke-width="0" fill="#fff" fill-rule="evenodd"></path><path d="M1.19 0.11 C7.73 0.22, 11.94 2.11, 23.78 7.43 M21.76 4.81 C27.35 3.86, 34.19 3.12, 48.45 0.73 M45.98 0.85 C40.61 -2.93, 33.1 -2.37, 21.53 -5.85 M21.34 -6.81 C19.09 -7.25, 12.83 -6.18, -1.5 0.88 M0 0 C0 0, 0 0, 0 0" stroke="#228be6" stroke-width="1.5" fill="none" stroke-dasharray="1.5 7"></path></g></g><mask></mask><g transform="translate(463.1304625816141 389.71678509299136) rotate(0 33.41996765136719 12.5)"><text x="33.41996765136719" y="0" font-family="Virgil, Segoe UI Emoji" font-size="20px" fill="#fff" text-anchor="middle" style="white-space: pre;" direction="ltr" dominant-baseline="text-before-edge">Router</text></g><g stroke-linecap="round"><g transform="translate(1008.9678026077015 664.507347028681) rotate(0 0.010952254670314687 57.43093284082198)"><path d="M-1.96 -1.36 C-10.21 4.43, -20.43 11.24, -45.89 22.5 M-44.78 21.5 C-51.27 40.24, -53.88 57.79, -57.25 75.66 M-56.01 74.34 C-50.33 85.5, -38.9 97.44, -24.46 114.88 M-26.18 113.87 C-9.97 115.05, 5.45 113.96, 24.93 116.22 M24.93 116.03 C35.35 102.78, 46.62 90.05, 57.27 72.81 M56.39 72.06 C55.74 61.81, 54.89 50.13, 45.2 23.38 M45.17 23.35 C38.05 19.3, 29.32 11.83, -1.08 -0.28" stroke="#aaa" stroke-width="2.5" fill="none" stroke-dasharray="1.5 8"></path></g></g><mask></mask><g stroke-linecap="round"><g transform="translate(1007.6460771134832 663.1228237331397) rotate(0 0.32439028090482225 57.65401821446204)" fill-rule="evenodd"><path d="M-0.32 0.93 L-44.57 21.64 L-58.51 73.87 L-25.01 114.31 L26.35 116.27 L58.9 74.25 L45.94 21.03 L-0.71 -1.07" stroke="none" stroke-width="0" fill="#228be6" fill-rule="evenodd"></path><path d="M-1.36 -0.64 C-13.26 4.43, -23.98 12.15, -45.68 22.79 M-46.69 20.79 C-48.3 35.78, -50.89 49.83, -55.39 73.34 M-56.71 72.31 C-49.8 84.53, -41.69 94.1, -25.62 115.17 M-26.63 114.5 C-13.11 114.21, -1.48 114.74, 26.22 115.95 M26.03 115.25 C37.99 100.92, 50.52 84.1, 57.36 72.09 M56.6 73.79 C53.66 58.88, 49.78 38.96, 48.28 20.03 M48.25 22.5 C36.76 17.59, 22.51 9.98, -0.28 -0.17 M0 0 C0 0, 0 0, 0 0" stroke="#fff" stroke-width="2.5" fill="none" stroke-dasharray="1.5 8"></path></g></g><mask></mask><g stroke-linecap="round"><g transform="translate(984.7997215353755 706.3913774395639) rotate(0 10.694602947764395 19.317039523273138)" fill-rule="evenodd"><path d="M1.53 -1.83 L-1.42 27.16 L21 40.68 L21.27 5.7 L3.97 0.01" stroke="none" stroke-width="0" fill="#fff" fill-rule="evenodd"></path><path d="M-0.64 -0.49 C-1.54 11.82, 0.03 20.52, 0.84 26.4 M-1.16 28.04 C5.28 31.45, 10.78 34.79, 21.05 37.62 M20.02 39.12 C22.72 32.13, 22.77 23.54, 22.37 6.45 M21.7 6.94 C16.72 4.32, 12.69 5.49, 2.94 3.28 M2.52 2.09 C1.73 1.47, 0.55 0.4, -0.26 0.06" stroke="#228be6" stroke-width="1.5" fill="none" stroke-dasharray="1.5 7"></path></g></g><mask></mask><g stroke-linecap="round"><g transform="translate(1033.209684250637 706.2557753031067) rotate(0 -11.729811646015662 19.463966764249193)" fill-rule="evenodd"><path d="M-1.83 -1.62 L-24.02 6.38 L-20.87 38.23 L-2.77 28.72 L-1.95 -1.22" stroke="none" stroke-width="0" fill="#fff" fill-rule="evenodd"></path><path d="M-0.49 -1.35 C-3.18 1.47, -9.44 3.36, -24.77 5.88 M-23.13 6.66 C-22.3 18.54, -21.35 29.72, -23.94 37.92 M-22.44 40.28 C-14.04 36.14, -7.2 31.05, -2.03 25.81 M-1.54 26.31 C-2.41 19.26, 0.28 12.89, 1.31 1.3 M0 0 C0 0, 0 0, 0 0" stroke="#228be6" stroke-width="1.5" fill="none" stroke-dasharray="1.5 7"></path></g></g><mask></mask><g stroke-linecap="round"><g transform="translate(986.5625493093206 703.2725283010457) rotate(0 23.22489324472582 -0.690819559635031)" fill-rule="evenodd"><path d="M-1.62 0.11 L22.22 8.41 L45.75 -1.15 L23.97 -9.61 L-1.22 1.97" stroke="none" stroke-width="0" fill="#fff" fill-rule="evenodd"></path><path d="M-1.35 1.73 C5.41 1.95, 11.18 2.49, 21.72 7.89 M22.5 8.04 C29.12 6.7, 35.02 1.97, 45.45 1.73 M47.8 1.43 C39.99 -2.12, 31.33 -5.7, 21.07 -8.25 M21.56 -9.42 C16.29 -5.18, 11.72 -2.6, 1.3 -0.66 M0 0 C0 0, 0 0, 0 0" stroke="#228be6" stroke-width="1.5" fill="none" stroke-dasharray="1.5 7"></path></g></g><mask></mask><g transform="translate(968.708141685889 744.4607087041026) rotate(0 39.929962158203125 12.5)"><text x="39.929962158203125" y="0" font-family="Virgil, Segoe UI Emoji" font-size="20px" fill="#fff" text-anchor="middle" style="white-space: pre;" direction="ltr" dominant-baseline="text-before-edge">Receiver</text></g><g stroke-linecap="round"><g transform="translate(909.5233581632573 467.97956925090307) rotate(0 1.0649877096587943 57.692649002417454)"><path d="M-1.1 0.41 C-10.03 2.73, -21.18 10.53, -47.86 23.06 M-46.47 23.82 C-50.05 36.22, -52.19 45.94, -55.9 72.13 M-58.03 72.09 C-48.44 86.87, -40.81 96.34, -24.02 115.86 M-25.17 114.05 C-9.86 115.95, 8.53 116.54, 24.08 115.34 M26.33 114.45 C34.55 105.32, 46.31 92.92, 57.91 74.9 M60.16 75.07 C55.92 52.79, 47.7 34.04, 48.4 22.97 M47.98 20.16 C30.39 11.74, 13.72 6.55, 1.42 -0.58" stroke="#2f9e44" stroke-width="2.5" fill="none" stroke-dasharray="1.5 8"></path></g></g><mask></mask><g stroke-linecap="round"><g transform="translate(908.201632669039 466.5950459553618) rotate(0 0.3286707605296897 57.3118978930525)" fill-rule="evenodd"><path d="M1.27 -0.46 L-45.97 21.92 L-55.24 75.33 L-25.58 113.05 L26.94 114.28 L58.84 74.72 L46.31 21.69 L-0.25 -0.67" stroke="none" stroke-width="0" fill="#228be6" fill-rule="evenodd"></path><path d="M0.41 -0.17 C-13.36 3.69, -21.71 8.94, -45.12 20.95 M-44.36 20.66 C-48.09 38.2, -54.44 57.48, -58.92 73.33 M-58.95 74.15 C-47.66 83.59, -41.47 96.24, -24.63 115.68 M-26.44 113.31 C-13.8 114.4, -2.45 113.58, 25.34 115.26 M24.45 115.06 C35.07 107.34, 42.41 94.95, 59.44 75.61 M59.61 75.5 C55.44 60.06, 54.59 51.64, 47.87 23.24 M45.07 22.64 C28.06 15.23, 13.79 7.66, -0.58 -1.05 M0 0 C0 0, 0 0, 0 0" stroke="#2f9e44" stroke-width="2.5" fill="none" stroke-dasharray="1.5 8"></path></g></g><mask></mask><g stroke-linecap="round"><g transform="translate(885.3552770909313 509.863599661786) rotate(0 10.742928214256608 19.370962474494604)" fill-rule="evenodd"><path d="M-0.64 1.93 L1.59 28.87 L21.2 37.01 L23.49 8.9 L3.56 3.22" stroke="none" stroke-width="0" fill="#fff" fill-rule="evenodd"></path><path d="M-0.17 -1.86 C-1.66 8.76, -1.87 15.94, -1 27.64 M-1.29 28.73 C5.37 29.3, 13.78 31.99, 21.04 37.96 M21.86 40.6 C21.11 30.26, 23.56 22.72, 22.88 5.69 M20.51 8.19 C15.74 6.85, 8.96 3.83, 2.24 0.79 M2.49 2.23 C2.12 1.54, 0.97 0.97, 0.31 -0.23" stroke="#2f9e44" stroke-width="1.5" fill="none" stroke-dasharray="1.5 7"></path></g></g><mask></mask><g stroke-linecap="round"><g transform="translate(933.7652398061931 509.72799752532876) rotate(0 -12.12792840134233 18.4659119301665)" fill-rule="evenodd"><path d="M1.93 1.39 L-22.3 6.58 L-24.54 40.45 L0.42 28.3 L1.26 1.28" stroke="none" stroke-width="0" fill="#fff" fill-rule="evenodd"></path><path d="M-1.86 -1.57 C-4.65 -0.15, -10.9 2.18, -23.54 6.7 M-22.44 5.98 C-24.44 17.18, -24.76 24.3, -23.6 38.5 M-20.96 38.33 C-17.06 37.57, -10.44 33.74, -2.79 27.28 M-0.29 26.78 C0.53 17.05, -0.52 9.45, -1.18 0 M0 0 C0 0, 0 0, 0 0" stroke="#2f9e44" stroke-width="1.5" fill="none" stroke-dasharray="1.5 7"></path></g></g><mask></mask><g stroke-linecap="round"><g transform="translate(887.1181048648765 506.7447505232677) rotate(0 22.226838410643097 -0.5151702184392093)" fill-rule="evenodd"><path d="M1.39 1.82 L22.42 4.74 L47.97 2.05 L23.56 -6.41 L1.28 -1.45" stroke="none" stroke-width="0" fill="#fff" fill-rule="evenodd"></path><path d="M-1.57 1.24 C5.46 3.25, 13.39 5.06, 22.54 6.21 M21.82 5.65 C33.24 2.38, 40.55 0.8, 46.02 -0.29 M45.85 0.46 C43.05 -0.04, 37.16 -4.44, 22.53 -7.24 M22.04 -6.51 C15.19 -5.85, 10.56 -4.8, 0 0.74 M0 0 C0 0, 0 0, 0 0" stroke="#2f9e44" stroke-width="1.5" fill="none" stroke-dasharray="1.5 7"></path></g></g><mask></mask><g transform="translate(890.2693675770025 547.9329309263246) rotate(0 19.149986267089844 12.5)"><text x="19.149986267089844" y="0" font-family="Virgil, Segoe UI Emoji" font-size="20px" fill="#fff" text-anchor="middle" style="white-space: pre;" direction="ltr" dominant-baseline="text-before-edge">Mail</text></g><g stroke-linecap="round"><g transform="translate(643.90573663548 83.77774633423655) rotate(0 0.5703485895941185 58.24612029386935)"><path d="M-1.4 0.47 C-13.72 6.81, -24.71 13.16, -44.59 21.64 M-0.25 -0.19 C-15.61 7.15, -30.81 15.11, -46.58 23.11 M-45.16 22.73 C-50.89 38.88, -52.41 55.72, -57.51 72.99 M-46.33 23.03 C-49.22 39.44, -53.29 57.15, -57.94 74.59 M-57.26 74.72 C-49.69 84.32, -40.69 98.15, -26.65 113.75 M-57.45 73.28 C-44.42 90.02, -33.66 105.62, -24.81 115.13 M-23.8 116.18 C-11.68 113.79, 3.08 117.15, 25.5 116.62 M-26.39 114.68 C-13.33 116.31, 0.69 115, 26.04 114.87 M27.54 116.22 C32.05 105.45, 39.23 97.58, 56.74 74.03 M26.55 115.26 C35.46 102.28, 45.14 89.11, 58.12 73.7 M57.89 75.2 C52.57 57.38, 49.22 38.29, 45 20.48 M59.08 73.12 C56.94 61.91, 52.83 51.81, 47.25 21 M45.01 23.04 C35.21 17.65, 26.15 14.72, -0.37 1.05 M46.99 22.02 C29.13 13.51, 11.9 5.36, 0.14 0.29" stroke="#aaa" stroke-width="2" fill="none"></path></g></g><mask></mask><g stroke-linecap="round"><g transform="translate(642.5840111412617 82.39322303869517) rotate(0 0.8436090572798776 57.896433100651905)" fill-rule="evenodd"><path d="M-0.39 0.83 L-45.4 22.39 L-57.65 73.76 L-27.15 116.46 L25.04 115.39 L56.6 75.24 L47.08 21.52 L0.66 -0.37" stroke="none" stroke-width="0" fill="#228be6" fill-rule="evenodd"></path><path d="M0.47 -0.84 C-16.53 9.1, -33.52 17.54, -46.54 22.84 M-0.19 -0.43 C-18.18 8.29, -35.61 16.65, -45.08 22.5 M-45.46 20.67 C-50.6 42.05, -55.21 60.11, -58.06 74.69 M-45.16 22.85 C-49.51 37.39, -52.68 51.01, -56.46 73.67 M-56.32 72.84 C-51.63 81.61, -42.69 90.11, -26.74 116.63 M-57.77 74.74 C-50.32 82.51, -43.54 92.99, -25.36 114.54 M-24.32 115.34 C-7.44 116.43, 15.33 114.88, 26.62 114.58 M-25.82 114.4 C-9.83 116.27, 3.68 116.16, 24.87 114.83 M26.22 114.43 C32.13 104.64, 40.92 95.08, 58.57 73.73 M25.26 115.28 C32.23 105.35, 39.08 96.3, 58.24 74.17 M59.74 72.13 C55.74 55.68, 50.95 37.71, 45.39 20.32 M57.66 74.45 C55.75 61.46, 54.35 51.3, 45.9 21.07 M47.95 20 C34.31 14.42, 23.51 9.5, 1.05 1.43 M46.92 21.63 C32.08 15.33, 18.16 9.1, 0.29 0.96 M0 0 C0 0, 0 0, 0 0 M0 0 C0 0, 0 0, 0 0" stroke="#fff" stroke-width="2" fill="none"></path></g></g><mask></mask><g stroke-linecap="round"><g transform="translate(619.737655563154 125.66177674511925) rotate(0 11.274361201607064 19.38876372516353)" fill-rule="evenodd"><path d="M1.52 -0.33 L1.72 25.5 L23.2 37.97 L22.69 5.5 L1.07 0.3" stroke="none" stroke-width="0" fill="#fff" fill-rule="evenodd"></path><path d="M-0.84 0.53 C1.08 8.72, 1.37 15.72, 0.89 28.87 M-0.43 -0.13 C-0.26 7.84, -0.51 15.78, 0.55 27.75 M-1.28 26.43 C8.13 29.86, 14.22 34.07, 22.4 38.65 M0.9 26.62 C7.65 30.37, 13.49 35.42, 21.37 38.03 M20.55 37.83 C20.82 30.73, 20.83 19, 23.83 5.84 M22.45 39.02 C21.2 31.31, 22.67 24.25, 21.74 8.22 M22.54 5.96 C18.41 7.78, 11.23 5.57, 1.56 1.83 M21.6 8.16 C18.83 5.5, 14.44 4.36, 1.81 1.2 M2.39 1.83 C1.64 1.54, 0.89 0.94, 0.01 -0.24 M2.53 1.9 C1.5 1.07, 0.59 0.47, 0.08 0.05" stroke="#228be6" stroke-width="1" fill="none"></path></g></g><mask></mask><g stroke-linecap="round"><g transform="translate(668.1476182784155 125.52617460866202) rotate(0 -12.104304587439884 18.909298304207937)" fill-rule="evenodd"><path d="M-0.33 1.52 L-25.68 8.58 L-23.59 39.64 L-2.98 25.82 L-1.67 -1.58" stroke="none" stroke-width="0" fill="#fff" fill-rule="evenodd"></path><path d="M0.53 1.21 C-4.93 2.93, -11.6 3.77, -22.31 6.42 M-0.13 -0.25 C-6.22 1.26, -12.33 4.06, -23.43 7.28 M-24.74 7.67 C-24.62 17.66, -23.87 29.84, -22.91 39.64 M-24.55 7.39 C-23.84 14.86, -22.3 24.1, -23.53 39.03 M-23.73 38.15 C-15.1 34.62, -11.05 33.93, -2.63 26.05 M-22.54 38.49 C-16.82 36.42, -10.5 32.06, -0.26 27.07 M-2.51 29.04 C0.92 16.59, 0.62 5.02, -0.14 -1.82 M-0.31 28.09 C-1.5 21.75, -1.27 14.51, -0.77 -0.24 M0 0 C0 0, 0 0, 0 0 M0 0 C0 0, 0 0, 0 0" stroke="#228be6" stroke-width="1" fill="none"></path></g></g><mask></mask><g stroke-linecap="round"><g transform="translate(621.5004833370991 122.54292760660098) rotate(0 22.670224784684535 -0.6489574099121569)" fill-rule="evenodd"><path d="M1.52 -1.55 L24.42 5.69 L47.17 -1.35 L21.08 -9.33 L-1.58 -1.93" stroke="none" stroke-width="0" fill="#fff" fill-rule="evenodd"></path><path d="M1.21 0.6 C8.78 1.57, 15.4 6.06, 22.26 6.14 M-0.25 0.42 C5.83 2.85, 13.13 4.46, 23.13 7.08 M23.51 5.55 C30.33 3.85, 39.31 2.44, 47.17 -0.05 M23.23 6.25 C31.2 5.12, 40.97 1.13, 46.55 0.51 M45.67 1.74 C37.32 -3.56, 31.86 -6.77, 21.3 -8.17 M46.01 0.38 C41.47 -1.19, 34.5 -2.58, 22.33 -6.77 M24.3 -5.9 C14.29 -4, 5.15 -2.39, -1.82 -1.59 M23.34 -8.38 C16.73 -6.09, 9.26 -4.01, -0.24 0.98 M0 0 C0 0, 0 0, 0 0 M0 0 C0 0, 0 0, 0 0" stroke="#228be6" stroke-width="1" fill="none"></path></g></g><mask></mask><g transform="translate(620.7460589289996 163.73110800965787) rotate(0 22.829978942871094 12.5)"><text x="22.829978942871094" y="0" font-family="Virgil, Segoe UI Emoji" font-size="20px" fill="#fff" text-anchor="middle" style="white-space: pre;" direction="ltr" dominant-baseline="text-before-edge">Auth</text></g><g stroke-linecap="round"><g transform="translate(516.6944301450685 378.5683771890548) rotate(0 52.24309472688188 -102.55264056298677)"><path d="M-0.07 0.45 C10.05 -19.62, 43.29 -85.96, 60.73 -120.29 C78.17 -154.63, 97.83 -191.03, 104.55 -205.56" stroke="#846358" stroke-width="2.5" fill="none" stroke-dasharray="8 10"></path></g><g transform="translate(516.6944301450685 378.5683771890548) rotate(0 52.24309472688188 -102.55264056298677)"><path d="M101.81 -175.11 C104.72 -180.85, 106.82 -194.83, 105.51 -208.08" stroke="#846358" stroke-width="2.5" fill="none"></path></g><g transform="translate(516.6944301450685 378.5683771890548) rotate(0 52.24309472688188 -102.55264056298677)"><path d="M83.44 -184.26 C91.9 -187.24, 99.54 -198.45, 105.51 -208.08" stroke="#846358" stroke-width="2.5" fill="none"></path></g></g><mask></mask><g stroke-linecap="round"><g transform="translate(517.2434202570327 384.6746194023233) rotate(176.9663020539462 64.79836221182748 -93.12520873082696)"><path d="M-1.3 -1.28 C7.41 -13.8, 29.8 -45.62, 51.83 -76.23 C73.86 -106.85, 117.78 -167.43, 130.89 -184.97" stroke="#846358" stroke-width="2.5" fill="none" stroke-dasharray="8 10"></path></g><g transform="translate(517.2434202570327 384.6746194023233) rotate(176.9663020539462 64.79836221182748 -93.12520873082696)"><path d="M120.64 -159.57 C123.08 -166.09, 125.51 -174.85, 133.88 -188.9" stroke="#846358" stroke-width="2.5" fill="none"></path></g><g transform="translate(517.2434202570327 384.6746194023233) rotate(176.9663020539462 64.79836221182748 -93.12520873082696)"><path d="M104.11 -171.72 C111.17 -174.62, 118.31 -179.92, 133.88 -188.9" stroke="#846358" stroke-width="2.5" fill="none"></path></g></g><mask></mask><g stroke-linecap="round"><g transform="translate(806.2700517942922 79.39598055728038) rotate(0 2.612486004147911 57.57942658793144)"><path d="M-0.8 -1.7 C-15.38 4.86, -29.24 13.61, -46.06 23.24 M-0.85 -0.64 C-14.1 6.41, -27.04 13.28, -44.89 22.83 M-44.78 23.33 C-49.13 35.36, -52.57 46.88, -55.16 74.84 M-44.96 22.53 C-47.89 38.59, -52.58 53.66, -56.89 73.75 M-56.13 72.85 C-42.76 87.85, -32.01 106.15, -24.31 114.12 M-55.94 73 C-45.3 86.02, -35.24 98.1, -23.95 115.57 M-23.06 114.16 C-13.9 115.7, -1.73 114.4, 26.53 116.14 M-22.73 115.13 C-6.41 114.05, 9.47 114.23, 27.61 116.86 M29.35 116.15 C40.22 101.7, 52.52 85.11, 62.11 72.14 M27.05 116.47 C38.24 103.6, 46.9 90.2, 60.92 73.91 M60.29 72.38 C57.35 62.72, 57.51 50.93, 50.09 25.06 M59.42 74.01 C57.62 59.95, 54.94 46.56, 52.9 26.5 M51.34 24.63 C39.94 19.26, 29.83 12.23, -0.94 -0.45 M52.47 26 C31.29 14.97, 13.42 4.83, 1.67 -0.92" stroke="#aaa" stroke-width="4" fill="none"></path></g></g><mask></mask><g stroke-linecap="round"><g transform="translate(807.5321563462212 78.40273710700285) rotate(0 0.6274345739806222 57.31837548737013)" fill-rule="evenodd"><path d="M-0.85 0.13 L-47.96 20.32 L-57.9 71.9 L-25.75 114.13 L24.02 114.01 L59.28 74.74 L47.4 20.67 L-1.98 0.46" stroke="none" stroke-width="0" fill="#228be6" fill-rule="evenodd"></path><path d="M-0.5 -1.93 C-9.41 3.99, -20.37 10.37, -46.03 21.22 M-0.38 -0.28 C-14.92 6.95, -29.7 15.07, -46.55 21.9 M-46.98 22.62 C-51.93 41.22, -53.61 62.93, -57.06 74.37 M-45.39 22.81 C-50.7 41, -54.88 60.07, -56.4 73.17 M-56.1 72.21 C-49.12 86.45, -40.92 95.92, -25.46 113.93 M-56.33 73.33 C-47.82 84.17, -40.95 96.91, -26.41 114.1 M-27.39 115.8 C-8.39 114.65, 9.07 115.71, 26.02 115.74 M-25.17 114.18 C-6.24 114.08, 13.12 116.13, 26.22 114.81 M25.85 116.56 C36 102.27, 47.05 87.83, 58.32 74.54 M26.3 115.66 C32.05 106.23, 39.88 97.97, 57.47 74.49 M57.45 73.06 C56.34 57.32, 49.98 43.11, 46.49 21.7 M57.73 72.94 C55.14 60.22, 54.1 48.43, 46.23 22.41 M46.9 21 C32.03 12.16, 11.51 6.62, 1.67 1.1 M45.91 21 C32.18 14.09, 16.88 7.74, 0.53 -0.03 M0 0 C0 0, 0 0, 0 0 M0 0 C0 0, 0 0, 0 0" stroke="#fff" stroke-width="2" fill="none"></path></g></g><mask></mask><g stroke-linecap="round"><g transform="translate(775.6727214946393 124.04112985017412) rotate(0 30.78298719943581 13.103951444595225)" fill-rule="evenodd"><path d="M-0.89 0.84 L-0.48 12.06 L0.63 18.19 L4.87 22.21 L12.56 25.82 L19.33 26.5 L43.13 26.82 L61.83 20.47 L62.04 17.38 L62.58 2.71 L59.88 -1.19 L43.53 -3.65 L-0.44 -0.7" stroke="none" stroke-width="0" fill="#fff" fill-rule="evenodd"></path><path d="M-1.16 0.3 C-1.26 2.28, -2.61 8.09, -1.63 11.54 C-0.65 14.99, 1.07 18.39, 4.73 21 C8.4 23.62, 13.85 26.36, 20.38 27.25 C26.9 28.14, 37.3 27.3, 43.86 26.34 C50.43 25.38, 56.54 23.75, 59.78 21.5 C63.02 19.24, 62.61 15.44, 63.3 12.8 C63.99 10.17, 64.33 7.97, 63.93 5.69 C63.53 3.41, 64.32 0.42, 60.9 -0.89 C57.48 -2.2, 53.38 -2.1, 43.41 -2.18 C33.44 -2.27, 8.23 -1.45, 1.08 -1.4 M0.44 -0.59 C0.25 1.59, -3.34 9.06, -2.69 12.88 C-2.03 16.7, 0.54 19.71, 4.38 22.32 C8.21 24.93, 13.47 27.85, 20.33 28.52 C27.18 29.19, 38.74 27.7, 45.51 26.33 C52.29 24.96, 57.85 22.76, 60.95 20.28 C64.06 17.8, 63.75 13.86, 64.13 11.46 C64.51 9.07, 63.5 7.63, 63.24 5.92 C62.98 4.21, 66.26 2.62, 62.56 1.23 C58.86 -0.17, 51.17 -2.11, 41.05 -2.43 C30.93 -2.76, 8.8 -1.26, 1.84 -0.72" stroke="#228be6" stroke-width="2" fill="none"></path></g></g><mask></mask><g stroke-linecap="round" transform="translate(775.5659144916278 115.68553310387188) rotate(0 31.766103310950825 7.263104023358096)"><path d="M19.23 0.28 C24.99 -0.41, 33.5 0.31, 39.94 0.75 C46.39 1.19, 54.11 1.7, 57.91 2.94 C61.7 4.17, 63.38 6.57, 62.7 8.18 C62.02 9.79, 58.52 11.48, 53.81 12.62 C49.1 13.76, 41.22 14.86, 34.45 15.01 C27.67 15.16, 18.87 14.54, 13.16 13.52 C7.44 12.49, 1.93 10.47, 0.14 8.86 C-1.64 7.25, -1.63 5.18, 2.44 3.85 C6.52 2.52, 20.38 1.47, 24.6 0.87 C28.82 0.27, 27.64 0.23, 27.76 0.26 M33.52 1.3 C39.63 1.22, 47.18 1.45, 52.26 2.08 C57.33 2.71, 63.17 3.4, 63.98 5.06 C64.79 6.72, 60.82 10.48, 57.12 12.03 C53.41 13.57, 48.25 14.17, 41.75 14.34 C35.25 14.52, 24.42 13.76, 18.14 13.08 C11.86 12.39, 7.13 11.29, 4.07 10.23 C1.01 9.18, -1.66 8.23, -0.22 6.75 C1.21 5.26, 7.22 2.55, 12.68 1.33 C18.15 0.11, 29.11 -0.53, 32.54 -0.56 C35.98 -0.6, 33.34 1.14, 33.31 1.12" stroke="none" stroke-width="0" fill="#fff"></path><path d="M42.2 -0.47 C48.35 -0.07, 54.82 1.58, 58.26 3.1 C61.71 4.62, 63.8 6.96, 62.89 8.65 C61.97 10.34, 57.67 12.36, 52.75 13.25 C47.84 14.14, 40.25 13.91, 33.4 14 C26.55 14.09, 17.07 14.55, 11.66 13.78 C6.25 13.01, 2.31 11.01, 0.94 9.39 C-0.44 7.76, 0.35 5.56, 3.42 4.01 C6.48 2.45, 12.35 0.53, 19.33 0.05 C26.31 -0.43, 40.63 0.9, 45.32 1.12 C50.01 1.34, 47.64 1.26, 47.46 1.37 M39.97 0 C45.89 0.15, 53.08 1.92, 57.16 3.11 C61.24 4.31, 65.17 5.59, 64.47 7.15 C63.77 8.72, 58.29 11.14, 52.96 12.51 C47.64 13.87, 39.45 15.32, 32.51 15.34 C25.57 15.35, 16.46 13.81, 11.31 12.6 C6.16 11.38, 3.02 9.48, 1.64 8.06 C0.26 6.63, 0.16 5.36, 3.01 4.04 C5.86 2.71, 12.37 0.93, 18.75 0.09 C25.13 -0.76, 37.35 -0.95, 41.28 -1.02 C45.2 -1.09, 42.24 -0.41, 42.28 -0.32" stroke="#228be6" stroke-width="2" fill="none"></path></g><g transform="translate(762.2723364055605 158.307938302303) rotate(0 42.559974670410156 12.5)"><text x="42.559974670410156" y="0" font-family="Virgil, Segoe UI Emoji" font-size="20px" fill="#fff" text-anchor="middle" style="white-space: pre;" direction="ltr" dominant-baseline="text-before-edge">MariaDB</text></g><g stroke-linecap="round"><g transform="translate(1048.1254416525803 245.98714066347532) rotate(0 3.3869062684718756 87.48963291073039)"><path d="M0.34 0.76 C-26.7 11.24, -50.08 22.23, -68.97 33.14 M0.85 -0.74 C-20.93 11.32, -40.64 20.98, -68.34 32.46 M-68.23 33.09 C-73.64 57.9, -78.88 79.16, -83.89 112.4 M-68.55 33.79 C-72.32 50.29, -74.96 66.58, -84.67 111.79 M-83.03 111.83 C-73.56 125.26, -58.83 142.56, -34.66 172.68 M-84.2 111.99 C-66.85 132.53, -50.66 153.9, -34.12 171.57 M-33.98 170.7 C-6.12 171.22, 22.68 171.61, 40.05 172.81 M-34.95 171.53 C-14.08 171.6, 8.83 174.03, 42.66 173.89 M41.69 175.83 C55.8 157.84, 64.53 143.81, 89.03 111 M41.94 174.73 C54.48 156.87, 67.69 140.42, 90.97 111.49 M89.68 113.27 C86.07 94.8, 86.19 74.46, 77.35 38.25 M91.44 112.28 C88.83 95.93, 85.2 79.64, 78.17 40.26 M79.49 38.34 C52.39 25.65, 29.02 11.48, 2.14 -0.07 M78.85 39.79 C53.95 26.85, 28.9 12.05, 1.76 -0.85" stroke="#aaa" stroke-width="4" fill="none"></path></g></g><mask></mask><g stroke-linecap="round"><g transform="translate(1050.021595437273 244.4949169610204) rotate(0 2.152791391491803 86.70835032861106)" fill-rule="evenodd"><path d="M-1.37 -1.09 L-68.44 34.64 L-86.43 112.69 L-39.44 171.83 L36.96 171.85 L87.47 110.64 L72.03 33.13 L0.99 0.26" stroke="none" stroke-width="0" fill="#228be6" fill-rule="evenodd"></path><path d="M0.76 -1.96 C-23.95 10.77, -48.09 21.64, -68.97 33.23 M-0.74 -0.52 C-16.63 9.21, -34.59 17.64, -69.65 33.26 M-69.01 33.24 C-70.73 49.77, -76.34 67.65, -84.56 109.2 M-68.32 32.56 C-73.86 56.72, -79.19 79.68, -85.16 110.4 M-85.12 109.26 C-69.97 132.55, -51.64 152.65, -38.24 173.55 M-84.96 111.5 C-74.1 126.3, -61.97 142.99, -39.35 173.51 M-40.22 171.64 C-10.13 170.74, 19.31 171.4, 37.01 173.35 M-39.39 171.66 C-17.94 173.11, 5.43 174.18, 38.09 173.06 M40.03 175.37 C47.07 159.49, 58.15 146.22, 87.19 110.02 M38.93 173.68 C54.73 151.88, 72.06 130.03, 87.68 110.21 M89.46 109.29 C84.3 88.12, 76.57 61.12, 69.01 31.47 M88.47 111.12 C84.09 92.19, 79.68 74.44, 71.02 33.24 M69.11 32.23 C44.55 22.03, 18.2 10.26, 1.78 0.35 M70.55 32.94 C55.04 24.99, 36.86 18.34, 1 -0.89 M0 0 C0 0, 0 0, 0 0 M0 0 C0 0, 0 0, 0 0" stroke="#fff" stroke-width="2" fill="none"></path></g></g><mask></mask><g stroke-linecap="round"><g transform="translate(1002.1567906715676 313.06087767717565) rotate(0 46.12152020006005 18.84903476826338)" fill-rule="evenodd"><path d="M1.67 -0.57 L-2.39 18.17 L1.54 23.54 L5.98 30.22 L16.31 38.52 L30 42.25 L49.61 42.89 L66.39 42.26 L79.86 38.4 L91.74 33.93 L93.76 28.09 L95.11 3.43 L94.23 -0.65 L82.07 -2.1 L62.76 -4.66 L0.27 0.68" stroke="none" stroke-width="0" fill="#fff" fill-rule="evenodd"></path><path d="M0.46 -1.17 C-0.02 1.73, -3.38 12.25, -2.66 17.63 C-1.94 23.01, -0.9 27.32, 4.8 31.12 C10.51 34.92, 21.21 38.64, 31.57 40.43 C41.92 42.22, 56.94 43.28, 66.93 41.86 C76.93 40.44, 87.03 35.52, 91.53 31.93 C96.03 28.33, 93.35 24.3, 93.95 20.28 C94.55 16.27, 95.41 11.46, 95.14 7.83 C94.87 4.21, 97.55 0.63, 92.31 -1.48 C87.06 -3.58, 78.87 -4.86, 63.65 -4.82 C48.44 -4.78, 11.57 -1.83, 1.03 -1.24 M-0.76 0.82 C-1.46 3.89, -5.2 13.79, -3.88 19.02 C-2.57 24.25, 1.14 28.45, 7.1 32.2 C13.06 35.95, 21.58 40.35, 31.87 41.51 C42.17 42.68, 59.2 40.43, 68.86 39.19 C78.52 37.95, 85.59 37.37, 89.82 34.08 C94.05 30.8, 93.54 23.85, 94.26 19.5 C94.98 15.14, 94.14 11.14, 94.14 7.97 C94.13 4.8, 99.18 2.17, 94.23 0.49 C89.27 -1.19, 79.82 -1.99, 64.4 -2.12 C48.98 -2.24, 12.59 -0.32, 1.71 -0.26" stroke="#228be6" stroke-width="2" fill="none"></path></g></g><mask></mask><g stroke-linecap="round" transform="translate(1001.9963265462442 300.50764160045776) rotate(0 47.72458583239387 10.911902790823717)"><path d="M66.91 0.52 C75 1, 84.14 2.82, 88.69 4.63 C93.25 6.44, 95.36 9.12, 94.24 11.38 C93.12 13.64, 88.24 16.38, 81.99 18.18 C75.73 19.98, 65.79 21.9, 56.73 22.18 C47.67 22.46, 36.21 21.02, 27.6 19.87 C18.99 18.72, 9.59 16.82, 5.07 15.28 C0.56 13.73, -0.94 12.6, 0.49 10.58 C1.93 8.56, 7.45 5.02, 13.68 3.14 C19.92 1.25, 27.88 -0.51, 37.91 -0.75 C47.93 -1, 67.11 0.95, 73.84 1.66 C80.58 2.38, 78.94 3.48, 78.32 3.53 M48.22 0.71 C57.52 0.7, 70.07 1.37, 77.73 2.54 C85.38 3.72, 91.7 5.74, 94.14 7.78 C96.59 9.83, 95.59 12.72, 92.4 14.79 C89.21 16.86, 82.56 19.15, 75 20.19 C67.44 21.24, 56.35 21.38, 47.03 21.08 C37.71 20.79, 26.71 19.35, 19.07 18.43 C11.44 17.51, 4.15 17.21, 1.23 15.56 C-1.68 13.9, -1.84 10.87, 1.6 8.5 C5.05 6.13, 14.15 2.93, 21.91 1.34 C29.67 -0.26, 43.91 -0.73, 48.18 -1.08 C52.45 -1.42, 47.48 -1.29, 47.54 -0.76" stroke="none" stroke-width="0" fill="#fff"></path><path d="M42.14 0.05 C50.97 -0.12, 62.27 1.41, 70.56 2.33 C78.85 3.26, 87.98 3.66, 91.89 5.59 C95.8 7.52, 95.97 11.57, 94.02 13.91 C92.08 16.26, 87 18.45, 80.21 19.67 C73.42 20.89, 62.59 21.26, 53.29 21.25 C44 21.25, 32.49 20.59, 24.43 19.64 C16.38 18.68, 8.88 17.31, 4.97 15.5 C1.06 13.69, -0.88 10.92, 0.97 8.77 C2.83 6.63, 8.83 4.06, 16.11 2.63 C23.4 1.19, 39.34 0.7, 44.7 0.15 C50.06 -0.4, 48.23 -0.71, 48.3 -0.66 M41.49 0.14 C50.1 -0.27, 61.92 -0.43, 70.23 0.39 C78.54 1.22, 87.15 2.92, 91.35 5.1 C95.56 7.29, 96.95 11.16, 95.45 13.51 C93.96 15.86, 89.29 17.92, 82.39 19.22 C75.48 20.52, 63.28 20.86, 54.03 21.32 C44.78 21.78, 35 22.87, 26.9 21.99 C18.8 21.11, 9.7 18.29, 5.43 16.05 C1.15 13.8, -0.05 10.68, 1.26 8.53 C2.57 6.38, 6.57 4.4, 13.3 3.14 C20.02 1.88, 37.08 1.5, 41.59 0.96 C46.11 0.42, 40.46 -0.33, 40.38 -0.09" stroke="#228be6" stroke-width="2" fill="none"></path></g><g transform="translate(980.6434561085429 364.54245932310766) rotate(0 65.32196044921875 18.77968213681629)"><text x="65.32196044921875" y="0" font-family="Virgil, Segoe UI Emoji" font-size="30.047491418906024px" fill="#fff" text-anchor="middle" style="white-space: pre;" direction="ltr" dominant-baseline="text-before-edge">MongoDB</text></g><g stroke-linecap="round"><g transform="translate(677.0391692712798 164.36138115013864) rotate(0 38.53913784562454 -2.9526309476340202)"><path d="M-0.81 -2.02 C12.1 -2.38, 65.08 -3.67, 77.89 -3.88" stroke="#099268" stroke-width="2.5" fill="none" stroke-dasharray="8 10"></path></g><g transform="translate(677.0391692712798 164.36138115013864) rotate(0 38.53913784562454 -2.9526309476340202)"><path d="M75.56 -7.07 L62.58 3.14 L60.61 -8.05 L74.46 -6.75" stroke="none" stroke-width="0" fill="#099268" fill-rule="evenodd"></path><path d="M75.73 -4.54 C74.48 -4.47, 70.88 -1.39, 64.5 0.34 M64.24 2.38 C62.82 0.38, 64.01 -5.39, 62.1 -11.34 M64.38 -12.18 C66.96 -10.47, 68.12 -7.37, 77.57 -1.31 M77.89 -3.88 C77.89 -3.88, 77.89 -3.88, 77.89 -3.88" stroke="#099268" stroke-width="2.5" fill="none"></path></g></g><mask></mask><g stroke-linecap="round"><g transform="translate(756.9988408936687 185.73615540501055) rotate(0 -36.99487287863599 -4.48677148153746)"><path d="M0.57 -2.23 C-11.56 -3.64, -62.12 -6.19, -74.56 -6.75" stroke="#099268" stroke-width="2.5" fill="none" stroke-dasharray="8 10"></path></g><g transform="translate(756.9988408936687 185.73615540501055) rotate(0 -36.99487287863599 -4.48677148153746)"><path d="M-71.28 -3.19 L-60.57 -10.61 L-61.03 -2.5 L-78.43 -7.07" stroke="none" stroke-width="0" fill="#099268" fill-rule="evenodd"></path><path d="M-76.94 -5.24 C-73.35 -6.08, -68.79 -11.44, -61.07 -12.56 M-59.04 -11.66 C-59.29 -10.36, -59.54 -4.3, -60.58 2.18 M-61.2 2.95 C-62.92 -1.36, -66.93 -4.46, -77.46 -5.95 M-74.56 -6.75 C-74.56 -6.75, -74.56 -6.75, -74.56 -6.75" stroke="#099268" stroke-width="2.5" fill="none"></path></g></g><mask></mask><g stroke-linecap="round" transform="translate(778.6383981902844 290.68037769659543) rotate(0 43.23449423410443 17.79027035470324)"><path d="M42.57 0.09 L87.2 19.01 L45.62 35.02 L-0.68 19.05" stroke="none" stroke-width="0" fill="#c6302b" fill-rule="evenodd"></path><path d="M45.32 -0.91 C58.79 3.44, 70.19 9.19, 87.55 19.68 M43.44 0.85 C56.94 4.94, 69.49 9.69, 87.38 17.37 M85.6 16.33 C69.98 24.73, 55.03 31.08, 43.48 33.75 M87.11 18.87 C74.63 23.8, 60.63 28.84, 44.94 34.91 M45.28 35.48 C31.66 30.34, 21 26.48, -0.34 17.98 M44.3 36.52 C27.5 28.33, 11.42 23.42, -0.07 17.12 M1.72 17.84 C7.74 14.59, 20.6 9.13, 45.25 -1.24 M-0.34 17.63 C13.57 11.11, 28.38 6.69, 43.56 0.96" stroke="#000000" stroke-width="1" fill="none"></path></g><g stroke-linecap="round"><g transform="translate(778.1005528074676 308.27412762296194) rotate(0 42.91434857369353 12.092693742128517)" fill-rule="evenodd"><path d="M1.29 1.73 L1.12 4.88 L-0.05 6.35 L45.67 22.49 L83.61 6.35 L84.35 5.87 L86.25 0.85 L85.36 0.88 L44.8 17.31 L-0.02 1.33" stroke="none" stroke-width="0" fill="#912626" fill-rule="evenodd"></path><path d="M-0.55 0.86 C-0.88 1.19, -1.35 1.83, -1.13 2.78 C-0.92 3.73, -2.67 4.82, 0.75 6.57 C4.17 8.31, 13.55 10.61, 19.38 13.27 C25.22 15.92, 31.79 20.54, 35.74 22.47 C39.7 24.4, 40.55 24.98, 43.13 24.85 C45.7 24.72, 46.71 23.61, 51.17 21.7 C55.63 19.79, 64.21 16.08, 69.9 13.41 C75.59 10.73, 82.47 7.52, 85.31 5.65 C88.16 3.78, 86.99 3.21, 86.97 2.21 C86.95 1.21, 86.79 -0.49, 85.19 -0.34 C83.6 -0.19, 83.6 0.36, 77.4 3.1 C71.2 5.85, 54.36 14.07, 48 16.12 C41.65 18.17, 47.46 18.12, 39.27 15.42 C31.09 12.72, 5.47 2.34, -1.1 -0.08 M1.37 0.27 C1.32 0.71, 0.7 3.47, 0.99 4.19 C1.27 4.9, -0.11 2.88, 3.09 4.56 C6.29 6.25, 14.43 11.79, 20.16 14.32 C25.9 16.84, 33.5 18.04, 37.5 19.72 C41.51 21.39, 42.34 24.24, 44.19 24.35 C46.04 24.46, 44.38 22.31, 48.59 20.38 C52.79 18.45, 63.48 14.92, 69.42 12.78 C75.35 10.64, 81.7 8.85, 84.22 7.53 C86.73 6.2, 84.32 6.03, 84.51 4.84 C84.71 3.65, 86.27 0.77, 85.37 0.37 C84.47 -0.02, 85.29 -0.01, 79.12 2.48 C72.95 4.98, 55.08 13.24, 48.33 15.34 C41.58 17.43, 46.9 17.73, 38.62 15.06 C30.34 12.39, 4.95 2, -1.35 -0.68" stroke="#000000" stroke-width="1" fill="none"></path></g></g><mask></mask><g stroke-linecap="round"><g transform="translate(777.9660914617635 294.96245439825077) rotate(0 42.56332070032221 11.277580956329416)" fill-rule="evenodd"><path d="M1.26 0.68 L-1.99 4.64 L3.68 4.57 L43.18 23.77 L82.4 7.69 L86.07 4.09 L86.25 2.05 L86.24 -0.16 L44 18.98 L-0.67 0.22" stroke="none" stroke-width="0" fill="#912626" fill-rule="evenodd"></path><path d="M-1.13 -0.26 C-1.21 0.21, -1.71 2.68, -1.05 3.69 C-0.4 4.7, -0.29 4.04, 2.81 5.81 C5.91 7.59, 12.04 11.56, 17.55 14.35 C23.07 17.13, 31.39 20.93, 35.9 22.52 C40.41 24.1, 42.04 24.12, 44.62 23.88 C47.2 23.65, 47.16 22.88, 51.38 21.1 C55.6 19.32, 64.35 15.82, 69.96 13.19 C75.57 10.56, 82.41 7.05, 85.06 5.31 C87.71 3.58, 85.95 3.7, 85.85 2.79 C85.76 1.87, 85.67 -0.31, 84.46 -0.19 C83.25 -0.06, 84.69 0.9, 78.6 3.55 C72.5 6.21, 54.66 13.71, 47.91 15.73 C41.16 17.75, 46.08 18.12, 38.07 15.65 C30.06 13.17, 6.09 3.32, -0.13 0.89 M0.48 -1.44 C0.8 -1.39, 0.76 0.49, 1.11 1.91 C1.46 3.33, -0.14 5.34, 2.57 7.08 C5.28 8.81, 11.51 10.19, 17.37 12.31 C23.23 14.42, 33.5 18.02, 37.74 19.78 C41.97 21.54, 40.94 22.31, 42.8 22.87 C44.67 23.43, 44.46 24.87, 48.91 23.13 C53.36 21.39, 63.69 15.14, 69.51 12.45 C75.33 9.76, 81 8.74, 83.82 7.01 C86.65 5.28, 86.41 3.13, 86.48 2.06 C86.55 0.99, 85.79 0.42, 84.26 0.6 C82.73 0.79, 83.3 0.81, 77.29 3.17 C71.27 5.53, 54.33 12.7, 48.19 14.74 C42.05 16.78, 48.46 17.74, 40.45 15.41 C32.44 13.09, 7.12 3.5, 0.13 0.79" stroke="#000000" stroke-width="1" fill="none"></path></g></g><mask></mask><g stroke-linecap="round" transform="translate(778.1005528074678 276.9653204347719) rotate(0 43.23449423410443 17.79027035470324)"><path d="M43.32 1.05 L86.03 19.83 L43.25 37.12 L0.1 17.16" stroke="none" stroke-width="0" fill="#c6302b" fill-rule="evenodd"></path><path d="M45.08 1.68 C52.53 2.71, 63.07 6.67, 88.17 19.38 M44.91 -0.63 C57.78 4.75, 69.78 10.71, 85.63 17.69 M85.95 16.17 C72.91 23.38, 61.1 30.45, 45.73 36.84 M87.41 17.33 C71.82 23.93, 57.04 30.47, 43.95 35.33 M43.66 35.56 C32.3 29.9, 18.24 26, 1.87 17.1 M43.93 34.7 C33.8 32.59, 24.99 29.2, -0.08 17.17 M1.25 16.76 C14.25 14, 29.75 6.1, 43.27 -0.66 M-0.44 18.96 C9.13 13.73, 20.13 10.14, 44.81 -0.28" stroke="#000000" stroke-width="1" fill="none"></path></g><g stroke-linecap="round" transform="translate(777.5510032994179 262.82728153079404) rotate(0 43.23449423410443 17.79027035470324)"><path d="M43.56 1.83 L85.72 19.54 L44.1 34.74 L0.11 16.29" stroke="none" stroke-width="0" fill="#c6302b" fill-rule="evenodd"></path><path d="M43.83 -1.37 C54.75 2.35, 63.84 8.66, 86.56 19.72 M44.7 -0.92 C54.75 4.42, 64.95 9.12, 86.63 18.06 M86.33 17.79 C74.79 24.33, 61.94 29.72, 44.68 33.73 M86.16 17.97 C72.06 24.01, 59.25 28.78, 43.95 35.93 M45.33 34.91 C29.35 30.23, 16.11 22.77, -1.72 17.18 M43.16 36.06 C27.65 29.61, 11.67 21.47, 0.19 18.85 M0.38 19.47 C12.29 13.27, 20.27 8.98, 42.51 0.89 M-0.72 18.05 C16.18 11.65, 32.36 4.43, 43.66 0.53" stroke="#000000" stroke-width="1" fill="none"></path></g><g stroke-linecap="round"><g transform="translate(777.4165419537136 280.8244154942729) rotate(0 42.8535021986396 12.406731680039513)" fill-rule="evenodd"><path d="M-0.61 -0.06 L-1.96 5.48 L1.7 5.42 L43.68 24.53 L84.99 6.07 L86.15 5.91 L85.69 1.57 L86.07 2.06 L43.13 15.94 L-0.82 1.33" stroke="none" stroke-width="0" fill="#912626" fill-rule="evenodd"></path><path d="M-0.82 0.98 C-1.1 1.67, -1.24 3.23, -0.67 4.06 C-0.09 4.89, -0.72 4.51, 2.63 5.97 C5.97 7.43, 13.57 10.36, 19.41 12.82 C25.25 15.28, 33.45 19.08, 37.66 20.73 C41.86 22.38, 42.56 22.66, 44.63 22.73 C46.7 22.79, 46.2 22.65, 50.07 21.13 C53.94 19.6, 62.14 16.02, 67.86 13.58 C73.59 11.14, 81.35 8.25, 84.41 6.49 C87.48 4.73, 86.24 4.06, 86.23 3 C86.22 1.93, 85.69 -0.12, 84.36 0.1 C83.04 0.33, 84.24 1.53, 78.27 4.36 C72.31 7.19, 54.97 15.12, 48.58 17.08 C42.19 19.04, 48.21 18.94, 39.92 16.14 C31.64 13.33, 5.35 3.08, -1.11 0.26 M0.95 0.45 C0.98 0.83, 1.47 1.33, 1.69 2.48 C1.92 3.62, -0.79 5.45, 2.29 7.31 C5.38 9.17, 14.45 11.41, 20.2 13.64 C25.94 15.88, 32.99 18.87, 36.76 20.72 C40.53 22.58, 40.52 24.36, 42.82 24.77 C45.12 25.18, 46.05 25.12, 50.57 23.17 C55.1 21.21, 64.59 16.05, 69.97 13.05 C75.35 10.04, 80 6.93, 82.84 5.15 C85.69 3.37, 86.84 3.06, 87.05 2.38 C87.26 1.7, 85.82 0.71, 84.11 1.04 C82.4 1.38, 82.61 1.78, 76.79 4.4 C70.98 7.03, 55.41 14.84, 49.22 16.8 C43.02 18.76, 48.05 18.99, 39.61 16.16 C31.18 13.33, 5.39 2.53, -1.37 -0.16" stroke="#000000" stroke-width="1" fill="none"></path></g></g><mask></mask><g stroke-linecap="round" transform="translate(793.0246894359083 276.32670109269577) rotate(0 9.33319929005296 4.112935280362308)"><path d="M10.84 -0.6 C12.63 -0.35, 14.71 1.29, 16.17 1.96 C17.62 2.63, 19.49 2.74, 19.56 3.44 C19.63 4.14, 18.01 5.32, 16.58 6.17 C15.14 7.02, 12.72 8.34, 10.94 8.54 C9.16 8.74, 7.43 7.96, 5.91 7.39 C4.38 6.82, 2.72 5.78, 1.8 5.11 C0.88 4.44, -0.07 3.98, 0.38 3.39 C0.84 2.79, 2.87 2.15, 4.54 1.54 C6.21 0.93, 9.22 -0.03, 10.41 -0.3 C11.6 -0.56, 11.47 -0.12, 11.65 -0.06 M12.92 -0.98 C14.62 -0.78, 16.21 -0.01, 16.97 1.15 C17.73 2.32, 17.92 4.88, 17.48 6 C17.03 7.12, 15.85 7.37, 14.31 7.88 C12.77 8.39, 9.9 9.07, 8.26 9.09 C6.62 9.11, 6.05 8.96, 4.48 8.01 C2.91 7.06, -0.71 4.28, -1.16 3.39 C-1.62 2.5, 0.35 2.97, 1.76 2.65 C3.16 2.33, 5.49 1.79, 7.27 1.46 C9.06 1.13, 11.44 1.04, 12.48 0.68 C13.51 0.32, 13.72 -0.88, 13.49 -0.71" stroke="none" stroke-width="0" fill="#ffff"></path><path d="M12.03 1.15 C13.74 1.36, 15.83 2.17, 16.76 2.74 C17.69 3.31, 17.92 3.97, 17.61 4.58 C17.31 5.19, 16.36 5.78, 14.93 6.42 C13.51 7.05, 10.99 8.23, 9.07 8.39 C7.15 8.55, 4.97 8.11, 3.43 7.36 C1.9 6.62, 0.27 4.83, -0.11 3.93 C-0.49 3.03, 0 2.47, 1.16 1.97 C2.32 1.46, 4.56 1.03, 6.84 0.9 C9.11 0.77, 13.38 1.31, 14.83 1.17 C16.28 1.03, 15.71 -0.02, 15.52 0.09 M4.89 1.19 C6.71 0.81, 10.48 -0.34, 12.56 -0.11 C14.65 0.13, 16.31 1.84, 17.4 2.63 C18.48 3.41, 19.44 3.68, 19.08 4.62 C18.72 5.57, 16.95 7.66, 15.22 8.29 C13.49 8.92, 10.63 8.33, 8.71 8.39 C6.79 8.45, 5.24 9.45, 3.7 8.63 C2.15 7.82, -0.05 4.42, -0.55 3.49 C-1.05 2.55, -0.42 3.77, 0.7 3.01 C1.82 2.25, 5.42 -0.77, 6.15 -1.1 C6.87 -1.42, 5.04 0.53, 5.06 1.03" stroke="#000000" stroke-width="1" fill="none"></path></g><g stroke-linecap="round"><g transform="translate(810.2831986315822 288.79855602021325) rotate(0 8.14698979520955 0.04618025531584635)" fill-rule="evenodd"><path d="M0.11 -1.71 L11.17 2.63 L14.83 -2.22 L-1.01 0.7" stroke="none" stroke-width="0" fill="#ffff" fill-rule="evenodd"></path><path d="M0.05 1.09 C2.39 2.05, 5.09 2.76, 10.82 3.72 M0.1 0.04 C3.09 0.9, 5.53 2.05, 11.92 4.47 M12.28 3.2 C13.62 2.02, 14.37 -1.82, 16.11 -4.38 M11.96 4.15 C13.67 1.18, 15.01 -1.23, 15.99 -3.54 M14.72 -4.26 C11.94 -2.6, 4.05 -2.68, 0.8 -0.38 M16.29 -2.89 C9.41 -1.82, 3.16 -0.79, 0.61 0.76 M0 0 C0 0, 0 0, 0 0 M0 0 C0 0, 0 0, 0 0" stroke="#000000" stroke-width="1" fill="none"></path></g></g><mask></mask><g stroke-linecap="round"><g transform="translate(816.1994978425652 268.2590203504466) rotate(0 4.94291010207138 4.451159499926916)" fill-rule="evenodd"><path d="M-1.16 1.9 L1.61 4.49 L-1.29 7.69 L3.16 5.76 L6.89 7.83 L6.02 7.47 L12.02 4.82 L7.71 2.25 L9.89 -1.04 L4.46 1.38 L-0.12 1.39" stroke="none" stroke-width="0" fill="#ffff" fill-rule="evenodd"></path><path d="M-0.16 0.33 C0.32 1.45, 0.77 2.33, 1.33 2.98 M0.02 -0.05 C0.24 0.87, 0.79 1.9, 1.6 3.44 M1.6 3.76 C-0.43 4.02, -1.68 4.64, -2.55 5.82 M1.58 3.24 C0.28 4.17, -1 4.74, -2.79 6.08 M-2.52 5.81 C-1.99 5.55, 0.09 6, 2.9 6.31 M-3.03 6.01 C-1.89 5.96, -0.38 6.27, 2.34 6.25 M2.7 6.15 C3.64 6.94, 4.02 8.36, 5.64 10.19 M2.39 6.56 C3.15 7.46, 4.05 8.13, 5.42 9.63 M5.7 9.61 C5.78 8.57, 6.08 8.1, 6.42 5.4 M5.52 10 C5.52 9, 5.83 7.92, 5.99 5.88 M6.32 6.02 C8.08 5.93, 9.27 5.41, 12.16 5.08 M5.91 5.52 C8.64 5.55, 11.03 4.87, 12.57 5.09 M12.24 4.92 C10.34 4, 8.5 3.15, 7.65 3.07 M12.92 4.94 C10.92 4.38, 8.6 3.59, 7.07 2.85 M7.13 3.47 C7.45 2.15, 7.82 0.59, 8.58 -1.04 M7.08 3.28 C7.42 2.16, 7.75 1.14, 8.97 -0.7 M8.67 -1.29 C7.58 0.38, 5.82 1.17, 4.38 1.02 M8.82 -0.66 C7.22 -0.04, 5.74 0.39, 3.91 1.33 M3.81 1.51 C3.02 0.62, 2.58 0.78, 0.34 -0.09 M3.97 1.18 C2.92 1.04, 2.03 0.87, 0.11 0 M0 0 C0 0, 0 0, 0 0 M0 0 C0 0, 0 0, 0 0" stroke="#000000" stroke-width="1" fill="none"></path></g></g><mask></mask><g stroke-linecap="round"><g transform="translate(840.6982333453858 275.98963509486725) rotate(0 -0.267006274411699 3.8966375026143965)" fill-rule="evenodd"><path d="M0.11 -1.63 L10.5 3.24 L-0.88 8.29 L-11.21 5.81 L-0.01 1.08 L-1.97 -0.31" stroke="none" stroke-width="0" fill="#912626" fill-rule="evenodd"></path><path d="M-0.69 0.76 C2.88 1.22, 7.3 2.12, 9.75 4.21 M-0.5 -0.04 C3.04 1.66, 6.54 2.97, 10.43 4.22 M9.33 3.69 C7.89 3.95, 6.47 5.75, -0.68 8.01 M10.08 4.41 C6.4 5.43, 3.25 7.24, -0.65 7.59 M-1.33 7.18 C-2.43 6.78, -4.54 5.88, -10.96 4.23 M-0.73 8.17 C-3.72 7.06, -8.01 4.83, -10.26 3.64 M-9.05 3.26 C-6.58 3.09, -2.6 2.18, -0.3 -0.37 M-10.29 4.45 C-6.49 2.29, -2.94 0.63, -0.22 -0.37 M0 0 C0 0, 0 0, 0 0 M0 0 C0 0, 0 0, 0 0 M0 0 C0 0, 0 0, 0 0 M0 0 C0 0, 0 0, 0 0" stroke="#000000" stroke-width="1" fill="none"></path></g></g><mask></mask><g stroke-linecap="round"><g transform="translate(839.6610865440781 275.7461362754318) rotate(0 -0.24080948097451937 3.9860416066670155)"><path d="M-0.74 -0.18 C-0.32 2.48, -0.14 6.44, 0.26 8.14 M-0.04 0.3 C0.24 2.56, 0.29 4.56, -0.17 8.16" stroke="#000000" stroke-width="1" fill="none"></path></g></g><mask></mask><g stroke-linecap="round"><g transform="translate(538.032201470861 384.94983427237946) rotate(0 128.24154620430667 -36.42302531244667)"><path d="M0 0 C74.75 -21.23, 149.51 -42.46, 256.48 -72.85" stroke="#1e1e1e" stroke-width="2.5" fill="none" stroke-dasharray="8 10"></path></g><g transform="translate(538.032201470861 384.94983427237946) rotate(0 128.24154620430667 -36.42302531244667)"><path d="M256.48 -72.85 L245.14 -63.03 L241.67 -75.23 L256.48 -72.85" stroke="none" stroke-width="0" fill="#1e1e1e" fill-rule="evenodd"></path><path d="M256.48 -72.85 C253.18 -69.99, 249.87 -67.13, 245.14 -63.03 M245.14 -63.03 C244 -67.05, 242.86 -71.07, 241.67 -75.23 M241.67 -75.23 C245.09 -74.68, 248.51 -74.13, 256.48 -72.85 M256.48 -72.85 C256.48 -72.85, 256.48 -72.85, 256.48 -72.85" stroke="#1e1e1e" stroke-width="2.5" fill="none"></path></g></g><mask></mask><g stroke-linecap="round"><g transform="translate(806.0325603235127 324.5028089983689) rotate(0 -131.95096953424596 40.48743870553017)"><path d="M0 0 C-99.38 30.49, -198.76 60.99, -263.9 80.97" stroke="#1e1e1e" stroke-width="2.5" fill="none" stroke-dasharray="8 10"></path></g><g transform="translate(806.0325603235127 324.5028089983689) rotate(0 -131.95096953424596 40.48743870553017)"><path d="M-263.9 80.97 L-252.76 70.93 L-249.05 83.05 L-263.9 80.97" stroke="none" stroke-width="0" fill="#1e1e1e" fill-rule="evenodd"></path><path d="M-263.9 80.97 C-259.71 77.19, -255.51 73.41, -252.76 70.93 M-252.76 70.93 C-251.76 74.2, -250.76 77.48, -249.05 83.05 M-249.05 83.05 C-253.57 82.42, -258.1 81.78, -263.9 80.97 M-263.9 80.97 C-263.9 80.97, -263.9 80.97, -263.9 80.97" stroke="#1e1e1e" stroke-width="2.5" fill="none"></path></g></g><mask></mask><g stroke-linecap="round"><g transform="translate(659.2275142595882 631.6332731028923) rotate(0 41.76993144619004 -7.942423546342127)" fill-rule="evenodd"><path d="M-1.53 0.92 L1.3 27.98 L2.09 34.03 L7.46 33.37 L69.59 36.5 L80.85 32.88 L84.7 32.28 L83.85 8.09 L84.94 -8.55 L79.91 -11.95 L73.31 -16.3 L54 -16.46 L49.01 -17.99 L48.71 -47.19 L45.88 -49.97 L37.65 -49.38 L34.41 -46.83 L30.36 -15.3 L26.98 -13.62 L20.47 -13.09 L17.59 -17.68 L14.95 -48.19 L10.83 -50.18 L8.99 -51.8 L4.67 -50.58 L1.9 -45.15 L-1.35 0.61" stroke="none" stroke-width="0" fill="#fd7e14" fill-rule="evenodd"></path><path d="M1.06 0.26 C0.88 3.85, -0.31 17.11, -0.25 22.6 C-0.18 28.08, -1.21 31.21, 1.45 33.17 C4.11 35.13, 8.51 34.13, 15.68 34.35 C22.86 34.58, 34.98 34.28, 44.5 34.52 C54.01 34.76, 66.4 36.35, 72.75 35.8 C79.09 35.25, 80.5 34.15, 82.57 31.23 C84.63 28.3, 84.91 23.77, 85.13 18.24 C85.35 12.71, 84.42 3.03, 83.89 -1.95 C83.36 -6.94, 83.63 -9.71, 81.93 -11.69 C80.23 -13.67, 77 -13.16, 73.7 -13.85 C70.39 -14.54, 66.06 -15.53, 62.07 -15.85 C58.09 -16.17, 52.06 -13.13, 49.77 -15.76 C47.48 -18.38, 48.58 -26.36, 48.33 -31.58 C48.09 -36.8, 49.41 -44.02, 48.29 -47.06 C47.18 -50.11, 44.27 -49.69, 41.65 -49.85 C39.04 -50.02, 34.1 -51.22, 32.62 -48.04 C31.15 -44.87, 32.99 -36.03, 32.82 -30.82 C32.65 -25.6, 33.2 -19.66, 31.61 -16.77 C30.01 -13.89, 25.82 -13.41, 23.24 -13.52 C20.67 -13.62, 17.41 -14.2, 16.17 -17.41 C14.92 -20.62, 15.84 -27.72, 15.78 -32.77 C15.73 -37.82, 17.21 -44.98, 15.85 -47.7 C14.48 -50.42, 10.34 -49.12, 7.6 -49.11 C4.85 -49.11, 0.89 -51.48, -0.62 -47.68 C-2.13 -43.88, -1.51 -34.12, -1.46 -26.31 C-1.41 -18.5, -0.64 -5.38, -0.32 -0.81 M0.16 -0.65 C-0.29 3.14, -2.09 15.15, -1.45 20.94 C-0.81 26.73, 1.13 31.73, 3.97 34.08 C6.82 36.44, 8.56 35.01, 15.6 35.08 C22.65 35.15, 36.53 34.5, 46.24 34.5 C55.95 34.49, 67.72 35.87, 73.85 35.07 C79.97 34.28, 81.17 32.66, 82.98 29.73 C84.79 26.79, 84.81 22.43, 84.7 17.46 C84.59 12.48, 82.63 4.86, 82.31 -0.1 C82 -5.06, 84.2 -9.66, 82.83 -12.3 C81.47 -14.95, 77.83 -15.22, 74.11 -15.95 C70.4 -16.67, 64.6 -16.61, 60.54 -16.66 C56.47 -16.71, 51.35 -13.76, 49.74 -16.23 C48.13 -18.7, 51.05 -26.31, 50.86 -31.5 C50.67 -36.69, 50.53 -44, 48.61 -47.38 C46.69 -50.77, 41.65 -51.78, 39.34 -51.8 C37.02 -51.82, 35.99 -51.14, 34.71 -47.5 C33.42 -43.86, 32.38 -35.11, 31.62 -29.96 C30.86 -24.81, 31.54 -19.11, 30.15 -16.6 C28.75 -14.08, 25.19 -15.1, 23.24 -14.87 C21.29 -14.64, 19.66 -12.53, 18.44 -15.21 C17.22 -17.9, 16.32 -25.95, 15.93 -30.96 C15.53 -35.97, 17.19 -42.17, 16.07 -45.26 C14.94 -48.35, 11.8 -49.08, 9.2 -49.5 C6.59 -49.93, 2.12 -51.68, 0.44 -47.79 C-1.25 -43.9, -1 -33.86, -0.92 -26.18 C-0.83 -18.49, 1.08 -6.05, 0.97 -1.68" stroke="#000000" stroke-width="1" fill="none"></path></g></g><mask></mask><g stroke-linecap="round"><g transform="translate(711.8427768483333 638.220375492364) rotate(0 8.356936371361826 4.310310599655395)" fill-rule="evenodd"><path d="M0.98 1.48 L0.69 -3.87 L5.67 -2.76 L11.19 -4.77 L13.96 -1.49 L14.89 9.9 L4.84 10.5 L1.97 9.39 L-0.11 1.58" stroke="none" stroke-width="0" fill="#ffff" fill-rule="evenodd"></path><path d="M-0.48 0.89 C-0.49 0.18, 0.13 -2.99, 1 -3.97 C1.87 -4.96, 3.16 -4.81, 4.76 -5.03 C6.35 -5.26, 8.89 -5.77, 10.59 -5.31 C12.28 -4.84, 14 -3.38, 14.93 -2.26 C15.85 -1.13, 15.68 0.12, 16.14 1.43 C16.61 2.75, 17.75 4.2, 17.73 5.62 C17.71 7.04, 16.95 8.96, 16.04 9.98 C15.13 10.99, 14.03 11.17, 12.27 11.7 C10.51 12.23, 7.37 13.5, 5.49 13.18 C3.61 12.86, 1.92 10.84, 0.98 9.79 C0.04 8.74, 0.18 8.43, -0.12 6.89 C-0.42 5.34, -0.83 1.6, -0.82 0.52 M1.47 0.31 C1.75 -0.28, 2.98 -2.11, 3.34 -2.84 C3.71 -3.57, 2.49 -3.79, 3.66 -4.09 C4.84 -4.39, 8.2 -5.04, 10.39 -4.62 C12.58 -4.19, 15.65 -2.36, 16.8 -1.55 C17.96 -0.74, 17.58 -1.27, 17.33 0.24 C17.08 1.75, 15.68 6, 15.31 7.49 C14.94 8.99, 15.87 8.16, 15.11 9.21 C14.34 10.27, 12.19 13.14, 10.73 13.82 C9.28 14.5, 7.95 13.88, 6.36 13.3 C4.77 12.73, 1.92 11.47, 1.18 10.39 C0.43 9.3, 2.23 8.55, 1.86 6.81 C1.5 5.08, -0.58 1.03, -1.02 -0.03" stroke="#000000" stroke-width="1" fill="none"></path></g></g><mask></mask><g stroke-linecap="round"><g transform="translate(517.8914213416962 418.3497356960015) rotate(0 82.30745375708102 118.93753206758859)"><path d="M-1.74 2.25 C25.99 41.98, 138.53 196.8, 166.35 235.62" stroke="#1e1e1e" stroke-width="2.5" fill="none" stroke-dasharray="1.5 8"></path></g><g transform="translate(517.8914213416962 418.3497356960015) rotate(0 82.30745375708102 118.93753206758859)"><path d="M170.57 229.25 C172.56 229.99, 175.08 232.58, 175.48 233.7 C175.88 234.82, 173.4 234.38, 172.96 235.97 C172.51 237.55, 174.06 241.84, 172.81 243.2 C171.55 244.57, 167.45 244.76, 165.42 244.14 C163.39 243.53, 162.18 240.58, 160.61 239.53 C159.03 238.47, 156.18 239.04, 155.94 237.84 C155.71 236.64, 157.63 234.06, 159.18 232.3 C160.73 230.54, 162.97 226.76, 165.23 227.28 C167.49 227.8, 171.22 233.35, 172.76 235.43 C174.3 237.52, 173.99 239.98, 174.48 239.79" stroke="none" stroke-width="0" fill="#1e1e1e"></path></g></g><mask></mask><g stroke-linecap="round"><g transform="translate(671.388127604613 660.4547704182237) rotate(0 -92.89093294570938 -119.84434168707165)"><path d="M1.17 -1.37 C-29.59 -40.72, -155.7 -199.16, -186.95 -238.32" stroke="#1e1e1e" stroke-width="2.5" fill="none" stroke-dasharray="1.5 8"></path></g><g transform="translate(671.388127604613 660.4547704182237) rotate(0 -92.89093294570938 -119.84434168707165)"><path d="M-194.39 -243.75 C-193.74 -244.74, -191.22 -245.11, -189.08 -245.53 C-186.94 -245.95, -182.87 -247.23, -181.55 -246.28 C-180.23 -245.33, -181.73 -241.73, -181.15 -239.82 C-180.57 -237.92, -178.09 -236.39, -178.07 -234.86 C-178.06 -233.34, -179.11 -231.4, -181.05 -230.65 C-182.99 -229.91, -187.6 -230.02, -189.74 -230.39 C-191.89 -230.75, -193.04 -231.45, -193.91 -232.84 C-194.78 -234.23, -195.77 -236.44, -194.98 -238.71 C-194.18 -240.98, -190.79 -245.35, -189.16 -246.48 C-187.53 -247.61, -185.31 -245.74, -185.2 -245.5" stroke="none" stroke-width="0" fill="#1e1e1e"></path></g></g><mask></mask><g stroke-linecap="round"><g transform="translate(1183.0831845469747 11.926990452377822) rotate(0 3.0295272439728365 72.96536910199626)"><path d="M-0.65 1.33 C-14.29 8.29, -30.02 14.56, -57.69 25.9 M0.45 0.35 C-18.35 10.12, -37.07 18.38, -57.02 27.07 M-58.99 28.53 C-63.61 52.59, -65.89 73.61, -70.45 92.12 M-57.5 27.76 C-62.26 49.73, -67 72.79, -71.67 94.42 M-70.92 94.18 C-58.67 110.37, -48 124.79, -30.61 146.54 M-70.96 94.89 C-60.97 106.42, -51.26 118.32, -30.01 146.42 M-31.49 145.05 C-6.91 147.82, 16.34 146.95, 33.57 146.37 M-30.15 145.11 C-9.33 147.29, 8.2 146.91, 35.89 147.86 M34.49 147.71 C44.84 131.28, 57.24 118.21, 77.69 92.67 M35.31 146.41 C49.05 128.76, 62.95 112.47, 77.7 93.14 M77.52 93.01 C73.8 81.05, 73.24 69.51, 64.15 32.07 M77.72 94.16 C72.29 72.64, 68.07 51.27, 65.06 33.33 M66.43 33.93 C45.17 22.43, 26.46 10.21, 0.27 -1.47 M65.66 34.13 C49.57 24.67, 32.36 16.35, 1.96 -1.93" stroke="#aaa" stroke-width="4" fill="none"></path></g></g><mask></mask><g stroke-linecap="round"><g transform="translate(1184.6871652434877 10.664699369798427) rotate(0 0.8971904787926519 73.93707829917082)" fill-rule="evenodd"><path d="M0.99 -1.22 L-57.45 29.92 L-73.61 94.42 L-33.98 144.05 L30.94 148.34 L74.76 93.66 L59.86 28.23 L-0.16 -0.46" stroke="none" stroke-width="0" fill="#228be6" fill-rule="evenodd"></path><path d="M0.55 1.4 C-16.48 8.63, -31.69 13.64, -58.13 26.37 M0.28 0.71 C-22.89 11.35, -45.09 21.5, -57.98 29.12 M-60.28 29.63 C-62.25 46.04, -66.22 63.63, -71.93 93.34 M-58.32 27.8 C-61.46 42.85, -65.02 57.28, -72.77 93.44 M-72.12 95.32 C-59.76 112.41, -46.15 130.25, -33.75 147.87 M-72.9 93.62 C-64.19 104.19, -55.41 116.93, -31.97 145.81 M-32.95 147.58 C-11.63 146.73, 7.95 145.84, 32.49 146.11 M-31.67 146.54 C-18.32 146.42, -1.58 147.41, 32.21 147.51 M31.25 145.39 C48.17 126.73, 64.55 105.71, 74.69 93.37 M32.32 146.32 C47.06 129.36, 62.9 108.49, 73.1 94.48 M73.79 93.39 C72.17 80.52, 65.71 64.09, 60.51 29.89 M73.82 93.11 C68.57 74.02, 64.17 56.02, 59.79 27.3 M59.25 27.65 C39.71 16.7, 15.51 7.95, -0.97 1.06 M59.58 27.46 C37.09 18.14, 17.06 7.58, 0.1 0.59 M0 0 C0 0, 0 0, 0 0 M0 0 C0 0, 0 0, 0 0" stroke="#fff" stroke-width="2" fill="none"></path></g></g><mask></mask><g stroke-linecap="round"><g transform="translate(1185.2058600715047 80.98586271341696) rotate(0 -0.045082191964297635 -24.7890987374966)"><path d="M0.84 -0.35 C0.68 -8.61, 0.26 -41.12, -0.16 -49.23 M-0.17 -1.57 C-0.53 -9.66, -1.04 -40.02, -0.91 -47.69" stroke="#fff" stroke-width="4" fill="none"></path></g></g><mask></mask><g stroke-linecap="round"><g transform="translate(1163.2791183721852 132.50094092975178) rotate(0 9.589672500876532 -21.24726865667685)"><path d="M0.38 0.02 C3.23 -6.68, 15.02 -33.9, 17.97 -40.5 M-0.89 -1.02 C2.24 -8.07, 16.52 -35.78, 20.06 -42.51" stroke="#fff" stroke-width="4" fill="none"></path></g></g><mask></mask><g stroke-linecap="round"><g transform="translate(1209.4947158225018 132.73553787112382) rotate(0 -11.193597123592497 -20.444009295357887)"><path d="M-1.18 0.22 C-5.04 -6.38, -19.45 -32.82, -22.78 -39.57 M0.4 -0.71 C-3.14 -7.62, -16.96 -34.16, -20.64 -41.11" stroke="#fff" stroke-width="4" fill="none"></path></g></g><mask></mask><g stroke-linecap="round"><g transform="translate(1236.8719037969167 96.25571348775202) rotate(0 -22.74299274698086 -4.4955680519541374)"><path d="M-1.08 1.11 C-8.44 -0.29, -37.97 -6.72, -45.39 -8.2 M0.56 0.65 C-6.81 -1.14, -38.26 -8.38, -46.05 -10.1" stroke="#fff" stroke-width="4" fill="none"></path></g></g><mask></mask><g stroke-linecap="round"><g transform="translate(1133.4853068179202 96.13841501706611) rotate(0 22.924741985311925 -4.700240992555337)"><path d="M0.54 0.42 C8.47 -1.12, 38.89 -6.59, 46.48 -8.14 M-0.63 -0.41 C7.26 -1.77, 38.06 -8.64, 45.71 -9.82" stroke="#fff" stroke-width="4" fill="none"></path></g></g><mask></mask><g stroke-linecap="round"><g transform="translate(1143.4556768262378 53.08987627527381) rotate(0 17.22559010389506 15.178842368639835)"><path d="M0.34 0.85 C6.15 5.53, 29.4 24.08, 35.39 28.52 M-0.94 0.24 C4.66 5.11, 28.26 25.45, 34.41 30.11" stroke="#fff" stroke-width="4" fill="none"></path></g></g><mask></mask><g stroke-linecap="round"><g transform="translate(1226.6202925426699 52.386085451157214) rotate(0 -18.278415986852224 13.80585178632407)"><path d="M-0.07 0.11 C-6.12 4.55, -29.96 22.54, -35.99 27.45 M-1.56 -0.87 C-7.73 3.61, -30.64 23.7, -36.49 28.48" stroke="#fff" stroke-width="4" fill="none"></path></g></g><mask></mask><g stroke-linecap="round" transform="translate(1148.303486109947 49.14508350569827) rotate(0 37.007667501458855 37.12496597214505)"><path d="M45.93 1.59 C52.41 3.04, 60.14 8.95, 64.87 14.48 C69.59 20.01, 73.71 27.78, 74.3 34.77 C74.9 41.77, 72.36 50.31, 68.42 56.43 C64.48 62.55, 57.63 68.72, 50.67 71.52 C43.7 74.31, 33.72 75.02, 26.63 73.21 C19.54 71.41, 12.63 66.37, 8.14 60.69 C3.65 55, 0 46.45, -0.3 39.08 C-0.6 31.7, 2.26 22.55, 6.35 16.44 C10.44 10.32, 17.27 4.75, 24.23 2.39 C31.19 0.03, 43.78 2.12, 48.13 2.28 C52.49 2.45, 50.43 2.74, 50.36 3.38 M29 0.07 C35.73 -2.07, 46.03 -1.53, 52.7 1.68 C59.36 4.89, 65.49 12.97, 68.97 19.33 C72.45 25.68, 74.34 33.02, 73.57 39.83 C72.81 46.65, 69.17 54.52, 64.37 60.22 C59.57 65.93, 51.56 72.25, 44.76 74.05 C37.95 75.85, 30.04 74.22, 23.53 71.03 C17.03 67.84, 9.75 61.13, 5.74 54.92 C1.73 48.7, -1.24 40.77, -0.51 33.74 C0.22 26.71, 5.27 18.42, 10.13 12.75 C14.99 7.08, 25.66 1.54, 28.63 -0.3 C31.59 -2.14, 27.89 1.04, 27.92 1.69" stroke="#fff" stroke-width="4" fill="none"></path></g><g stroke-linecap="round" transform="translate(1174.6369927789726 75.12669476266547) rotate(0 10.32226542037506 11.02605624449177)"><path d="M8.57 0.78 C10.81 0.33, 14.6 0.54, 16.61 1.63 C18.63 2.72, 20.1 5.01, 20.67 7.31 C21.24 9.62, 21.18 13.14, 20.04 15.46 C18.9 17.79, 15.92 20.19, 13.83 21.26 C11.74 22.32, 9.55 22.51, 7.5 21.85 C5.44 21.19, 2.67 19.36, 1.49 17.31 C0.32 15.26, 0.09 11.91, 0.43 9.54 C0.78 7.18, 1.62 4.6, 3.55 3.12 C5.49 1.64, 10.09 0.91, 12.05 0.67 C14.02 0.44, 15.25 1.46, 15.33 1.69 M8.43 -0.63 C10.59 -1.34, 14.4 -1.48, 16.35 -0.02 C18.3 1.44, 19.54 5.83, 20.13 8.14 C20.72 10.45, 20.69 12.01, 19.89 13.84 C19.09 15.67, 17.23 17.63, 15.31 19.12 C13.39 20.6, 10.32 22.91, 8.37 22.76 C6.43 22.62, 4.97 20.35, 3.64 18.25 C2.3 16.15, 0.75 12.53, 0.38 10.18 C0.01 7.82, -0.04 5.79, 1.41 4.11 C2.87 2.44, 8 0.96, 9.12 0.15 C10.23 -0.67, 8.39 -0.98, 8.11 -0.78" stroke="#fff" stroke-width="4" fill="none"></path></g><g stroke-linecap="round"><g transform="translate(532.0731848846415 418.2042998177358) rotate(0 221.29610226229119 -7.751495679998072)"><path d="M-0.24 -2.58 C73.24 -4.43, 369.1 -11.27, 442.83 -12.92" stroke="#2f9e44" stroke-width="2.5" fill="none" stroke-dasharray="1.5 8"></path></g><g transform="translate(532.0731848846415 418.2042998177358) rotate(0 221.29610226229119 -7.751495679998072)"><path d="M411.19 -2.17 C428.39 -7.12, 439.33 -13.61, 440.77 -13.49" stroke="#2f9e44" stroke-width="2.5" fill="none" stroke-dasharray="1.5 6"></path></g><g transform="translate(532.0731848846415 418.2042998177358) rotate(0 221.29610226229119 -7.751495679998072)"><path d="M410.73 -22.68 C427.83 -20.05, 438.94 -18.95, 440.77 -13.49" stroke="#2f9e44" stroke-width="2.5" fill="none" stroke-dasharray="1.5 6"></path></g></g><mask></mask><g stroke-linecap="round"><g transform="translate(940.8101640513082 573.903084539958) rotate(0 29.108878067552666 -82.85789157362473)"><path d="M-1 -1.92 C9.31 -29.5, 49.35 -137.14, 59.22 -163.79" stroke="#2f9e44" stroke-width="2.5" fill="none" stroke-dasharray="1.5 8"></path></g><g transform="translate(940.8101640513082 573.903084539958) rotate(0 29.108878067552666 -82.85789157362473)"><path d="M56.27 -135.39 C58.1 -142.99, 60.98 -146.66, 60.43 -161.69" stroke="#2f9e44" stroke-width="2.5" fill="none" stroke-dasharray="1.5 6"></path></g><g transform="translate(940.8101640513082 573.903084539958) rotate(0 29.108878067552666 -82.85789157362473)"><path d="M37.03 -142.54 C42.91 -148.52, 49.74 -150.72, 60.43 -161.69" stroke="#2f9e44" stroke-width="2.5" fill="none" stroke-dasharray="1.5 6"></path></g></g><mask></mask><g stroke-linecap="round"><g transform="translate(1043.6400251624193 736.8067303732913) rotate(0 9.954138171013426 -161.0983228332801)"><path d="M-1.33 2.12 C2.13 -51.47, 17.65 -270.05, 21.23 -324.32" stroke="#2f9e44" stroke-width="2.5" fill="none" stroke-dasharray="1.5 8"></path></g><g transform="translate(1043.6400251624193 736.8067303732913) rotate(0 9.954138171013426 -161.0983228332801)"><path d="M32.57 -297.92 C28.63 -308.7, 27.17 -313.94, 23.24 -324.09" stroke="#2f9e44" stroke-width="2.5" fill="none" stroke-dasharray="1.5 6"></path></g><g transform="translate(1043.6400251624193 736.8067303732913) rotate(0 9.954138171013426 -161.0983228332801)"><path d="M12.09 -299.33 C14.64 -309.47, 19.69 -314.26, 23.24 -324.09" stroke="#2f9e44" stroke-width="2.5" fill="none" stroke-dasharray="1.5 6"></path></g></g><mask></mask><g stroke-linecap="round"><g transform="translate(972.6631884425304 405.10173843617133) rotate(0 -222.27391834137885 5.198981260668404)"><path d="M-1.56 -1.02 C-75.36 1.16, -370.18 9.21, -442.99 11.42" stroke="#2f9e44" stroke-width="2.5" fill="none" stroke-dasharray="1.5 8"></path></g><g transform="translate(972.6631884425304 405.10173843617133) rotate(0 -222.27391834137885 5.198981260668404)"><path d="M-416.56 -3.38 C-423.81 6.13, -430.85 7.83, -439.33 14.13" stroke="#2f9e44" stroke-width="2.5" fill="none" stroke-dasharray="1.5 6"></path></g><g transform="translate(972.6631884425304 405.10173843617133) rotate(0 -222.27391834137885 5.198981260668404)"><path d="M-415.97 17.13 C-423.15 20.62, -430.36 16.3, -439.33 14.13" stroke="#2f9e44" stroke-width="2.5" fill="none" stroke-dasharray="1.5 6"></path></g></g><mask></mask><g stroke-linecap="round"><g transform="translate(1001.0746467758637 411.1694467695046) rotate(0 -29.918446211215894 78.83368816891078)"><path d="M-1.92 -1.12 C-11.85 25.51, -48.91 131.85, -57.91 158.79" stroke="#2f9e44" stroke-width="2.5" fill="none" stroke-dasharray="1.5 8"></path></g><g transform="translate(1001.0746467758637 411.1694467695046) rotate(0 -29.918446211215894 78.83368816891078)"><path d="M-60.08 128.19 C-61.52 141.82, -58.82 151.58, -55.82 159.47" stroke="#2f9e44" stroke-width="2.5" fill="none" stroke-dasharray="1.5 6"></path></g><g transform="translate(1001.0746467758637 411.1694467695046) rotate(0 -29.918446211215894 78.83368816891078)"><path d="M-40.67 134.85 C-49.04 145.82, -53.31 153.18, -55.82 159.47" stroke="#2f9e44" stroke-width="2.5" fill="none" stroke-dasharray="1.5 6"></path></g></g><mask></mask><g stroke-linecap="round"><g transform="translate(1066.8515564980858 406.74670371394905) rotate(0 -9.897158720871062 160.01810682062074)"><path d="M2.12 -1.7 C-1.07 52.14, -18.05 267.37, -21.91 321.74" stroke="#2f9e44" stroke-width="2.5" fill="none" stroke-dasharray="1.5 8"></path></g><g transform="translate(1066.8515564980858 406.74670371394905) rotate(0 -9.897158720871062 160.01810682062074)"><path d="M-32.46 294.02 C-32.65 300.87, -27.09 306.33, -21.69 323.99" stroke="#2f9e44" stroke-width="2.5" fill="none" stroke-dasharray="1.5 6"></path></g><g transform="translate(1066.8515564980858 406.74670371394905) rotate(0 -9.897158720871062 160.01810682062074)"><path d="M-12 295.56 C-16.27 302.41, -14.82 307.56, -21.69 323.99" stroke="#2f9e44" stroke-width="2.5" fill="none" stroke-dasharray="1.5 6"></path></g></g><mask></mask><g stroke-linecap="round"><g transform="translate(961.9317449023233 768.209286210259) rotate(0 -116.33072108465001 -51.93508417102365)"><path d="M0.99 1.08 C-37.54 -16.48, -194.75 -87.29, -233.65 -104.95" stroke="#1971c2" stroke-width="2.5" fill="none" stroke-dasharray="1.5 8"></path></g><g transform="translate(961.9317449023233 768.209286210259) rotate(0 -116.33072108465001 -51.93508417102365)"><path d="M-202.19 -104.82 C-210.4 -103.34, -216.64 -103.97, -230.16 -104.53" stroke="#1971c2" stroke-width="2.5" fill="none" stroke-dasharray="1.5 6"></path></g><g transform="translate(961.9317449023233 768.209286210259) rotate(0 -116.33072108465001 -51.93508417102365)"><path d="M-210.65 -86.12 C-217.13 -88.64, -221.58 -93.21, -230.16 -104.53" stroke="#1971c2" stroke-width="2.5" fill="none" stroke-dasharray="1.5 6"></path></g></g><mask></mask><g stroke-linecap="round"><g transform="translate(918.2178980914576 663.5297445842104) rotate(315.94426917551164 -101.18040462216149 -45.962491909834796)"><path d="M0.62 -1.37 C-33.38 -16.55, -168.54 -75.53, -202.98 -90.56" stroke="#1971c2" stroke-width="2.5" fill="none" stroke-dasharray="1.5 8"></path></g><g transform="translate(918.2178980914576 663.5297445842104) rotate(315.94426917551164 -101.18040462216149 -45.962491909834796)"><path d="M-174.99 -85.86 C-180.44 -90.71, -191.93 -88.04, -201.46 -89.95" stroke="#1971c2" stroke-width="2.5" fill="none" stroke-dasharray="1.5 6"></path></g><g transform="translate(918.2178980914576 663.5297445842104) rotate(315.94426917551164 -101.18040462216149 -45.962491909834796)"><path d="M-183.2 -67.05 C-185.97 -78.27, -194.69 -81.92, -201.46 -89.95" stroke="#1971c2" stroke-width="2.5" fill="none" stroke-dasharray="1.5 6"></path></g></g><mask></mask><g stroke-linecap="round"><g transform="translate(733.6504949023233 669.4549459324812) rotate(0 116.02093048190847 49.87110530906918)"><path d="M1.64 -1.64 C40.02 15.06, 192.21 84.26, 230.4 101.39" stroke="#1971c2" stroke-width="2.5" fill="none" stroke-dasharray="1.5 8"></path></g><g transform="translate(733.6504949023233 669.4549459324812) rotate(0 116.02093048190847 49.87110530906918)"><path d="M198.14 100.05 C207.9 100.91, 216.59 97.25, 227.36 105.25" stroke="#1971c2" stroke-width="2.5" fill="none" stroke-dasharray="1.5 6"></path></g><g transform="translate(733.6504949023233 669.4549459324812) rotate(0 116.02093048190847 49.87110530906918)"><path d="M206.59 81.35 C213.93 88, 220.05 90.05, 227.36 105.25" stroke="#1971c2" stroke-width="2.5" fill="none" stroke-dasharray="1.5 6"></path></g></g><mask></mask><g stroke-linecap="round"><g transform="translate(719.4018529227337 574.0793975714569) rotate(315.94426917551164 101.67349659496642 45.73845961941575)"><path d="M-1.37 1.98 C32.66 16.79, 170.53 74.53, 204.71 89.5" stroke="#1971c2" stroke-width="2.5" fill="none" stroke-dasharray="1.5 8"></path></g><g transform="translate(719.4018529227337 574.0793975714569) rotate(315.94426917551164 101.67349659496642 45.73845961941575)"><path d="M177.58 90.54 C182.83 89.93, 195.73 90.72, 205.33 92.72" stroke="#1971c2" stroke-width="2.5" fill="none" stroke-dasharray="1.5 6"></path></g><g transform="translate(719.4018529227337 574.0793975714569) rotate(315.94426917551164 101.67349659496642 45.73845961941575)"><path d="M185.65 71.66 C188.39 77.03, 198.71 83.86, 205.33 92.72" stroke="#1971c2" stroke-width="2.5" fill="none" stroke-dasharray="1.5 6"></path></g></g><mask></mask></svg>